{
  "tasks": [
    {
      "id": "d31b",
      "name": "Test Task 1",
      "completed": false
    },
    {
      "id": "35c9",
      "name": "Test Task 1",
      "completed": false
    },
    {
      "id": "fdcc",
      "name": "Test Task 1",
      "completed": false
    },
    {
      "id": "68b5",
      "name": "Test Task 1",
      "completed": false
    }
  ]
}